{
    "key": "group_576c716677494",
    "title": "Homepage Options",
    "fields": [
        {
            "key": "field_576c716e36f34",
            "label": "Hero Video",
            "name": "hero_video",
            "type": "file",
            "instructions": "Upload the video to be used as the hero background. Must be in .mp4 format.",
            "required": 0,
            "conditional_logic": 0,
            "wrapper": {
                "width": "",
                "class": "",
                "id": ""
            },
            "return_format": "array",
            "library": "all",
            "min_size": "",
            "max_size": "",
            "mime_types": ".mp4"
        },
        {
            "key": "field_576c71c436f35",
            "label": "Hero Image",
            "name": "hero_image",
            "type": "image",
            "instructions": "Upload the image to be used as the hero background. This will be used as a fallback for the video.",
            "required": 0,
            "conditional_logic": 0,
            "wrapper": {
                "width": "",
                "class": "",
                "id": ""
            },
            "return_format": "array",
            "preview_size": "thumbnail",
            "library": "all",
            "min_width": "",
            "min_height": "",
            "min_size": "",
            "max_width": "",
            "max_height": "",
            "max_size": "",
            "mime_types": ""
        }
    ],
    "location": [
        [
            {
                "param": "page_template",
                "operator": "==",
                "value": "template-homepage.php"
            }
        ]
    ],
    "menu_order": 0,
    "position": "acf_after_title",
    "style": "default",
    "label_placement": "top",
    "instruction_placement": "label",
    "hide_on_screen": [
        "the_content"
    ],
    "active": 1,
    "description": "",
    "modified": 1466724845
}