{
    "key": "group_5761df255f92e",
    "title": "Post Options",
    "fields": [
        {
            "key": "field_5761e0675130f",
            "label": "Post Excerpt",
            "name": "post_excerpt",
            "type": "wysiwyg",
            "instructions": "This is the post excerpt. It will be displayed as the overview paragraph on the archives and the first paragraph of the post.",
            "required": 1,
            "conditional_logic": 0,
            "wrapper": {
                "width": "",
                "class": "",
                "id": ""
            },
            "default_value": "",
            "tabs": "all",
            "toolbar": "full",
            "media_upload": 1
        }
    ],
    "location": [
        [
            {
                "param": "post_type",
                "operator": "==",
                "value": "post"
            }
        ]
    ],
    "menu_order": 0,
    "position": "acf_after_title",
    "style": "default",
    "label_placement": "top",
    "instruction_placement": "label",
    "hide_on_screen": [
        "excerpt"
    ],
    "active": 1,
    "description": "",
    "modified": 1466032415
}